%YAML 1.1
%TAG !u! tag:unity3d.com,2011:
--- !u!114 &11400000
MonoBehaviour:
  m_ObjectHideFlags: 0
  m_CorrespondingSourceObject: {fileID: 0}
  m_PrefabInstance: {fileID: 0}
  m_PrefabAsset: {fileID: 0}
  m_GameObject: {fileID: 0}
  m_Enabled: 1
  m_EditorHideFlags: 0
  m_Script: {fileID: 11500000, guid: 0df941cbc3ee63a43b66d0276112a09d, type: 3}
  m_Name: GameSettings
  m_EditorClassIdentifier: 
  crossBackgroundColor: {r: 0.24973297, g: 0.72698677, b: 0.8679245, a: 0.43529412}
  noughBacgroundColor: {r: 0.9056604, g: 0.38318694, b: 0.32039872, a: 0.43529412}
