%YAML 1.1
%TAG !u! tag:unity3d.com,2011:
--- !u!1045 &1
EditorBuildSettings:
  m_ObjectHideFlags: 0
  serializedVersion: 2
  m_Scenes:
  - enabled: 1
    path: Assets/Scenes/MainMenu.unity
    guid: edfdaec1bf8454111807317f22bc4fad
  - enabled: 1
    path: Assets/Scenes/Game.unity
    guid: 5b322688afef244f687b517030a2e84a
  m_configObjects: {}
